…
## `tbl_df`函数 {.smaller}

- tbl_df类是
    - dplyr的工作类型
    - data.frame子类tbl的一个子类，继承data.frame及tbl的所有属性
- tbl_df的优势
    - print显示效果更友好
    - 默认最多只打印前10行，避免不小心打印过多行

```r
> tbl_df(iris)
# A tibble: 150 × 5
   Sepal.Length Sepal.Width Petal.Length Petal.Width Species
          <dbl>       <dbl>        <dbl>       <dbl>  <fctr>
1           5.1         3.5          1.4         0.2  setosa
2           4.9         3.0          1.4         0.2  setosa
3           4.7         3.2          1.3         0.2  setosa
4           4.6         3.1          1.5         0.2  setosa
5           5.0         3.6          1.4         0.2  setosa
6           5.4         3.9          1.7         0.4  setosa
7           4.6         3.4          1.4         0.3  setosa
8           5.0         3.4          1.5         0.2  setosa
9           4.4         2.9          1.4         0.2  setosa
10          4.9         3.1          1.5         0.1  setosa
# ... with 140 more rows
```

## `select`函数选列 {.smaller}

<div class='columns-2'>

- 保留某些列

```r
> select(tbl_df(iris), starts_with("Petal"))
# A tibble: 150 × 2
   Petal.Length Petal.Width
          <dbl>       <dbl>
1           1.4         0.2
2           1.4         0.2
3           1.3         0.2
4           1.5         0.2
5           1.4         0.2
6           1.7         0.4
7           1.4         0.3
8           1.5         0.2
9           1.4         0.2
10          1.5         0.1
# ... with 140 more rows
```

- 舍弃某些列

```r
> select(tbl_df(iris), -contains("Petal"))
# A tibble: 150 × 3
   Sepal.Length Sepal.Width Species
          <dbl>       <dbl>  <fctr>
1           5.1         3.5  setosa
2           4.9         3.0  setosa
3           4.7         3.2  setosa
4           4.6         3.1  setosa
5           5.0         3.6  setosa
6           5.4         3.9  setosa
7           4.6         3.4  setosa
8           5.0         3.4  setosa
9           4.4         2.9  setosa
10          4.9         3.1  setosa
# ... with 140 more rows
```
</div>

## `select`函数选列(续) {.smaller}

<div class='columns-2'>

- 重命名某些列

```r
> select(tbl_df(iris), `Petal_Len`=Petal.Length)
# A tibble: 150 × 1
   Petal_Len
       <dbl>
1        1.4
2        1.4
3        1.3
4        1.5
5        1.4
6        1.7
7        1.4
8        1.5
9        1.4
10       1.5
# ... with 140 more rows
```
<p class='forceBreak'></p>

- 重组列的次序

```r
> select(tbl_df(iris), `Petal_Len`=Petal.Length, 
+      everything())
# A tibble: 150 × 5
 Petal_Len Sepal.Length Sepal.Width Petal.Width Species
     <dbl>        <dbl>       <dbl>       <dbl>  <fctr>
1      1.4          5.1         3.5         0.2  setosa
2      1.4          4.9         3.0         0.2  setosa
3      1.3          4.7         3.2         0.2  setosa
4      1.5          4.6         3.1         0.2  setosa
5      1.4          5.0         3.6         0.2  setosa
6      1.7          5.4         3.9         0.4  setosa
7      1.4          4.6         3.4         0.3  setosa
8      1.5          5.0         3.4         0.2  setosa
9      1.4          4.4         2.9         0.2  setosa
10     1.5          4.9         3.1         0.1  setosa
# ... with 140 more rows
```
…
## `filter`函数筛行 {.smaller}

- `filter(.data, ...)`
    - ...可填入逻辑表达式
    
```r
> filter(tbl_df(iris), Petal.Width > 2 & Species == 'virginica')
# A tibble: 23 × 5
 Sepal.Length Sepal.Width Petal.Length Petal.Width   Species
        <dbl>       <dbl>        <dbl>       <dbl>    <fctr>
1         6.3         3.3          6.0         2.5 virginica
2         7.1         3.0          5.9         2.1 virginica
3         6.5         3.0          5.8         2.2 virginica
4         7.6         3.0          6.6         2.1 virginica
5         7.2         3.6          6.1         2.5 virginica
6         6.8         3.0          5.5         2.1 virginica
7         5.8         2.8          5.1         2.4 virginica
8         6.4         3.2          5.3         2.3 virginica
9         7.7         3.8          6.7         2.2 virginica
10        7.7         2.6          6.9         2.3 virginica
# ... with 13 more rows
```
…
## `arrange`函数排序 {.smaller}

- `arrange(.data, ...)`
    - ...可填入所有要排序的变量

```r
> arrange(tbl_df(iris), Sepal.Length, desc(Sepal.Width))
# A tibble: 150 × 5
   Sepal.Length Sepal.Width Petal.Length Petal.Width Species
          <dbl>       <dbl>        <dbl>       <dbl>  <fctr>
1           4.3         3.0          1.1         0.1  setosa
2           4.4         3.2          1.3         0.2  setosa
3           4.4         3.0          1.3         0.2  setosa
4           4.4         2.9          1.4         0.2  setosa
5           4.5         2.3          1.3         0.3  setosa
6           4.6         3.6          1.0         0.2  setosa
7           4.6         3.4          1.4         0.3  setosa
8           4.6         3.2          1.4         0.2  setosa
9           4.6         3.1          1.5         0.2  setosa
10          4.7         3.2          1.3         0.2  setosa
# ... with 140 more rows
```

## `mutate`函数创建变量 {.smaller}

- `mutate(.data, ...)`
    - ...可填入所有的目标变量计算式

```r
> mutate(tbl_df(iris), Sepal.LWR = Sepal.Length/Sepal.Width)
# A tibble: 150 × 6
 Sepal.Length Sepal.Width Petal.Length Petal.Width Species Sepal.LWR
        <dbl>       <dbl>        <dbl>       <dbl>  <fctr>     <dbl>
1         5.1         3.5          1.4         0.2  setosa  1.457143
2         4.9         3.0          1.4         0.2  setosa  1.633333
3         4.7         3.2          1.3         0.2  setosa  1.468750
4         4.6         3.1          1.5         0.2  setosa  1.483871
5         5.0         3.6          1.4         0.2  setosa  1.388889
6         5.4         3.9          1.7         0.4  setosa  1.384615
7         4.6         3.4          1.4         0.3  setosa  1.352941
8         5.0         3.4          1.5         0.2  setosa  1.470588
9         4.4         2.9          1.4         0.2  setosa  1.517241
10        4.9         3.1          1.5         0.1  setosa  1.580645
# ... with 140 more rows
```
…
